{"info":{"count":826,"pages":42,"next":"https://rickandmortyapi.com/api/character/?page=3","prev":"https://rickandmortyapi.com/api/character/?page=1"},"results":[{}]}

